0 0.605459864 0.449233614 0.287246609 0.133886131 0.000000000 0.000000000 0.000000000
2 0.795346608 0.695777882 0.583363095 0.467721268 0.358404149 0.288945568 0.268002881
4 0.911755448 0.863111973 0.805138554 0.742274649 0.679733610 0.628552796 0.602131456
6 0.965266862 0.944128215 0.917753440 0.887833668 0.856715770 0.828353483 0.809339880
8 0.987070170 0.978492958 0.967331621 0.954131125 0.939822300 0.925872231 0.914938000
10 0.995368601 0.992046935 0.987549562 0.982016168 0.975777385 0.969373916 0.963799696
12 0.998387786 0.997145080 0.995397529 0.993164532 0.990549991 0.987746191 0.985111025
14 0.999451386 0.998999064 0.998339397 0.997465241 0.996403804 0.995219559 0.994037637
16 0.999816755 0.999655800 0.999412675 0.999078986 0.998659327 0.998173517 0.997663891
18 0.999939749 0.999883566 0.999795772 0.999671117 0.999508933 0.999314504 0.999101534
20 0.999980458 0.999961172 0.999930030 0.999884336 0.999822900 0.999746744 0.999660027
22 0.999993737 0.999987214 0.999976341 0.999959871 0.999937012 0.999907748 0.999873216
24 0.999998014 0.999995837 0.999992095 0.999986248 0.999977878 0.999966826 0.999953342
